Division_Job/project_1/project_1.sim/sim_1/behav/xsim/simulate.log
Time resolution is 1 ps
 Block Memory Generator module loading initial data...
 Block Memory Generator data initialization complete.
Block Memory Generator module test_bench.uut.DP.d1.inst.native_mem_module.blk_mem_gen_v8_4_8_inst is using a behavioral model for simulation which will not precisely model memory collision behavior.
 Block Memory Generator module loading initial data...
 Block Memory Generator data initialization complete.
Block Memory Generator module test_bench.uut.DP.im.inst.native_mem_module.blk_mem_gen_v8_4_8_inst is using a behavioral model for simulation which will not precisely model memory collision behavior.
                   0         x          x xxxxx
                   0         0          x 00000
                  34         0          0 00000
                  35        24          0 00000
                  38        24          0 10110
                  41        23          0 10110
                  44        23          0 01100
                  46        23          0 10110
                  48        22          0 10110
                  51        22          0 01100
                  53        22          0 10110
                  55        21          0 10110
                  59        21          0 01100
                  60        21          0 10110
                  63        20          0 10110
                  66        20          0 01100
                  67        20          0 10110
                  70        19          0 10110
                  73        19          0 01100
                  75        19          0 10110
                  77        18          0 10110
                  80        18          0 01100
                  82        18          0 10110
                  84        17          0 10110
                  87        17          0 01100
                  89        17          0 10110
                  91        16          0 10110
                  95        16          0 01100
                  96        16          0 10110
                  99        15          0 10110
                 102        15          0 01100
                 103        15          0 10110
                 106        14          0 10110
                 109        14          0 01100
                 111        14          0 10110
                 113        13          0 10110
                 116        13          0 01100
                 118        13          0 10110
                 120        12          0 10110
                 123        12          0 01100
                 125        12          0 10110
                 127        11          0 10110
                 131        11          0 01100
                 132        11          0 10110
                 135        10          0 10110
                 138        10          0 01100
                 139        10          0 10110
                 142         9          0 10110
                 145         9          0 01100
                 147         9          0 10110
                 149         8          0 10110
                 152         8          0 01100
                 155         8          0 01101
                 155         8          0 10111
                 158         7          0 10111
                 161         7          0 01110
                 163         7          0 01111
                 164         7          0 11001
                 167         6          0 11001
                 170         6          0 10010
                 172         6          0 10011
                 173         6          0 11101
                 175         5          0 11101
                 179         5          0 11010
                 181         5          0 11011
                 182         5          0 00101
                 184         5          1 00101
                 185         4          1 00101
                 188         4          1 01010
                 191         4          1 01011
                 191         4          1 00001
                 193         4          2 00001
                 195         4          3 00001
                 195         3          3 00001
                 199         3          3 00010
                 201         3          3 00011
                 202         3          3 11001
                 203         3          6 11001
                 205         2          6 11001
                 208         2          6 10010
                 211         2          6 10011
                 211         2          6 11101
                 212         2         12 11101
                 214         1         12 11101
                 217         1         12 11010
                 219         1         12 11011
                 220         1         12 00101
                 221         1         24 00101
                 223         1         25 00101
                 223         0         25 00101
